ATAC_fastqc
…
(in this case, Sample, ind, trt, time read, trimmed, Total sequences,
Flagged poor quality, sequence length, %GC,total deduplicated %,and avg
sequence length) I also then addin the gen_stats file and rename the
columns to normal things.

fastqc_full

# A tibble: 288 × 17
   Sample                     ind   trt   time   read  trimmed `Total Sequences`
   <chr>                      <fct> <fct> <fct>  <chr> <chr>               <dbl>
 1 trimmed_Ind1_75DA24h_S7_R1 Ind1  DNR   24 ho… R1    yes              42551223
 2 trimmed_Ind1_75DA24h_S7_R2 Ind1  DNR   24 ho… R2    yes              42551223
 3 trimmed_Ind1_75DA3h_S1_R1  Ind1  DNR   3 hou… R1    yes              48230311
 4 trimmed_Ind1_75DA3h_S1_R2  Ind1  DNR   3 hou… R2    yes              48230311
 5 trimmed_Ind1_75DX24h_S8_R1 Ind1  DOX   24 ho… R1    yes              43284466
 6 trimmed_Ind1_75DX24h_S8_R2 Ind1  DOX   24 ho… R2    yes              43284466
 7 trimmed_Ind1_75DX3h_S2_R1  Ind1  DOX   3 hou… R1    yes              44480840
 8 trimmed_Ind1_75DX3h_S2_R2  Ind1  DOX   3 hou… R2    yes              44480840
 9 trimmed_Ind1_75E24h_S9_R1  Ind1  EPI   24 ho… R1    yes              42757767
10 trimmed_Ind1_75E24h_S9_R2  Ind1  EPI   24 ho… R2    yes              42757767
# ℹ 278 more rows
# ℹ 10 more variables: `Sequences flagged as poor quality` <dbl>,
#   `Sequence length` <chr>, `%GC` <dbl>, total_deduplicated_percentage <dbl>,
#   avg_sequence_length <dbl>, percent_dup <dbl>, percent_gc <dbl>,
#   avg_seq_len <dbl>, percent_fails <dbl>, total_sequences <dbl>
…
