Combine_data
…
Version

Author

Date

ad854f2

reneeisnowhere

2024-10-24

schneider_df

# A tibble: 43 × 13
# Groups:   Peakid [35]
   Peakid     name  RSID  med_3h_lfc med_24h_lfc RNA_3h_lfc RNA_24h_lfc repClass
   <chr>      <chr> <chr>      <dbl>       <dbl>      <dbl>       <dbl> <chr>   
 1 chr1.1734… rs10… rs10…     0.0209      1.28       0.0781      0.841  LINE    
 2 chr1.1963… rs75… rs75…    -0.0841      1.40       0.0279      0.301  Other   
 3 chr1.1964… rs75… rs75…    -0.282      -0.320      0.0279      0.301  NA      
 4 chr10.167… rs70… rs70…    -0.386      -1.43       0.0107     -0.0511 NA      
 5 chr10.167… rs70… rs70…    -0.386      -1.43       0.0107     -0.0511 NA      
 6 chr10.762… rs70… rs70…     0.268       3.24       0.126       0.202  SINE    
 7 chr11.124… rs71… rs71…     0.162       0.574      0.904       2.48   NA      
 8 chr11.124… rs50… rs50…     0.162       0.574      0.904       2.48   NA      
 9 chr11.133… rs10… rs10…    -0.513       0.888     -0.0506      0.198  LTR     
10 chr11.364… rs10… rs10…    -0.524       0.0904    -0.194      -0.102  SINE    
# ℹ 33 more rows
# ℹ 5 more variables: TEstatus <chr>, SYMBOL.x <chr>, reheat <chr>, mrc <chr>,
#   point_ol <chr>
…
