Jaspar_motif_norm
…
  for_supplemental

# A tibble: 160 × 8
# Groups:   mrc_type [8]
   mrc_type  CLUSTER ID                ALT_ID motif_name mrc   sig_val order_val
   <chr>       <int> <chr>             <chr>  <chr>      <chr> <chr>       <dbl>
 1 EAR_close       1 1-VTGASTCAB;MA16… STREM… FOS; BACH… EAR_… 4.82e-…  4.82e-72
 2 EAR_close       2 2-GWGATAA;MA0766… STREM… GATA2; GA… EAR_… 6.53e-…  6.53e-61
 3 EAR_close       3 MA0774.1;MA0498.… MEIS2… MEIS2; ME… EAR_… 1.58e-…  1.58e-26
 4 EAR_close      10 7-ACTCAA          STREM… NKX2-2     EAR_… 2.27e-…  2.27e-22
 5 EAR_close      16 MA0035.4          GATA1  GATA1      EAR_… 7.35e-…  7.35e-18
 6 EAR_close      18 MA0842.2          NRL    NRL        EAR_… 1.73e-…  1.73e-14
 7 EAR_close      31 MA1632.1          ATF2   ATF2       EAR_… 4.08e-…  4.08e-13
 8 EAR_close      15 MA0595.1;MA0596.… SREBF… SREBF1; S… EAR_… 3.57e-…  3.57e-12
 9 EAR_close      33 MA1643.1;MA0119.… NFIB;… NFIB; NFI… EAR_… 6.57e-…  6.57e- 6
10 EAR_close      32 MA0802.1          TBR1   TBR1       EAR_… 8.35e-…  8.35e- 6
# ℹ 150 more rows
…
