Jaspar_enrichment
…
spec_dataframe %>% 
  dplyr::filter(stringr::str_detect( motif_name,"JUNB^*")) %>% 
  dplyr::select(RANK ,CLUSTER,mrc,motif_name,ID:CONSENSUS,EVALUE,ENR_RATIO,`TP%`)

# A tibble: 37 × 10
   RANK  CLUSTER mrc       motif_name  ID    ALT_ID CONSENSUS   EVALUE ENR_RATIO
   <chr>   <dbl> <chr>     <chr>       <chr> <chr>  <chr>        <dbl>     <dbl>
 1 3           1 EAR_close JUNB        MA04… JUNB   NNATGACT… 4.68e-84      1.41
 2 15          1 EAR_close FOSL2::JUNB MA11… FOSL2… KRTGASTC… 5.70e-77      1.49
 3 18          1 EAR_close FOS::JUNB   MA11… FOS::… KATGASTC… 5.69e-71      1.35
 4 23          1 EAR_close FOSL1::JUNB MA11… FOSL1… NDRTGACT… 3.36e-68      1.32
 5 26          1 EAR_close FOSB::JUNB  MA11… FOSB:… KRTGASTC… 6.01e-64      1.26
 6 30          1 EAR_close JUN::JUNB   MA11… JUN::… KATGACKC… 2.72e-56      1.33
 7 69          6 EAR_close FOSL2::JUNB MA11… FOSL2… DATGACGT… 3.85e-22      1.1 
 8 191         6 EAR_close JUN::JUNB   MA11… JUN::… KRTGACGT… 6.53e-12      1.06
 9 233         6 EAR_close FOSB::JUNB  MA11… FOSB:… RTGACGTC… 5.75e-10      1.15
10 6           2 ESR_open  JUNB        MA04… JUNB   NNATGACT… 3.85e-99      2.47
# ℹ 27 more rows
# ℹ 1 more variable: `TP%` <dbl>
…
