TEs and my data
…
    Peakid %in% EAR_close$Peakid ~ "EAR_close",
    Peakid %in% ESR_open$Peakid ~ "ESR_open",
    Peakid %in% ESR_close$Peakid ~ "ESR_close",
    Peakid %in% ESR_opcl$Peakid ~ "ESR_opcl",
    Peakid %in% LR_open$Peakid ~ "LR_open",
    Peakid %in% LR_close$Peakid ~ "LR_close",
    Peakid %in% NR_df$Peakid ~ "NR",
    Peakid %in% ESR_clop$Peakid ~ "ESR_clop",
    TRUE ~ "not_mrc"
  )) %>% 
  # distinct(Peakid, .keep_all = TRUE) %>% 
  group_by(gwas,mrc) %>% 
  tally

# A tibble: 32 × 3
# Groups:   gwas [9]
   gwas   mrc           n
   <chr>  <chr>     <int>
 1 ACresp LR_open       2
 2 ARR    ESR_close     2
 3 ARR    LR_close      4
 4 ARR    LR_open       3
 5 ARR    NR           12
 6 ARR    not_mrc       1
 7 CAD    EAR_close     1
 8 CAD    EAR_open      1
 9 CAD    ESR_close     2
10 CAD    LR_close      4
# ℹ 22 more rows
…
