TEs and my data
…
  as.data.frame %>% 
  dplyr::select(seqnames:gwas,repName:repFamily) %>% 
  mutate(mrc=if_else(Peakid %in% EAR_open$Peakid, "EAR_open",
                      if_else(Peakid %in% EAR_close$Peakid, "EAR_close",
                              if_else(Peakid %in% ESR_open$Peakid,"ESR_open",
                                      if_else(Peakid %in% ESR_close$Peakid,"ESR_close",
                                              if_else(Peakid %in% ESR_OC$Peakid,"ESR_OC",
                                                      if_else(Peakid %in% LR_open$Peakid,"LR_open",
                                                                      if_else(Peakid %in% LR_close$Peakid,"LR_close",
                                                                              if_else(Peakid %in% NR_df$Peakid,"NR","not_mrc"))))))))) %>%
  # distinct(Peakid, .keep_all = TRUE) %>% 
  group_by(gwas,mrc) %>% 
  tally

# A tibble: 24 × 3
# Groups:   gwas [6]
   gwas   mrc           n
   <chr>  <chr>     <int>
 1 ACresp LR_open       2
 2 ARR    ESR_close     2
 3 ARR    LR_close      4
 4 ARR    LR_open       3
 5 ARR    NR           12
 6 ARR    not_mrc       1
 7 CAD    EAR_close     1
 8 CAD    EAR_open      1
 9 CAD    ESR_close     2
10 CAD    LR_close      4
# ℹ 14 more rows
…
