TEs and my data
…
# Eight_group_list <- list(EAR_hyper_gr,EAR_hypo_gr, ESR_A_gr, ESR_B_gr, ESR_CD_gr, LR_hyper_gr,LR_hypo_gr,NR_gr)
# names(Eight_group_list) <- c("EAR_hyper","EAR_hypo", "ESR_A", "ESR_B", "ESR_CD", "LR_hyper","LR_hypo","NR")

# saveRDS(Eight_group_list,"data/TE_info/Eight_group_list.RDS")
# saveRDS(Nine_group_TE,"data/TE_info/Nine_group_TE_full.RDS")

Nine_group_TE %>% distinct(peakid,.keep_all = TRUE) %>% 
  group_by(mrc, TEstatus) %>% 
  dplyr::filter(is.na(per_ol)|per_ol>per_cov) %>% 
  dplyr::filter(is.na(repClass)|repClass != "Other")

# A tibble: 95,241 × 9
# Groups:   mrc, TEstatus [20]
   peakid    repName repClass repClass_org repFamily width TEstatus mrc   per_ol
   <chr>     <chr>   <chr>    <chr>        <chr>     <int> <chr>    <chr>  <dbl>
 1 chr1.191… <NA>    <NA>     <NA>         <NA>         NA not_TE_… NR    NA    
 2 chr1.267… <NA>    <NA>     <NA>         <NA>         NA not_TE_… NR    NA    
 3 chr1.629… <NA>    <NA>     <NA>         <NA>         NA not_TE_… NR    NA    
 4 chr1.633… <NA>    <NA>     <NA>         <NA>         NA not_TE_… NR    NA    
 5 chr1.633… <NA>    <NA>     <NA>         <NA>         NA not_TE_… NR    NA    
 6 chr1.821… <NA>    <NA>     <NA>         <NA>         NA not_TE_… NR    NA    
 7 chr1.831… <NA>    <NA>     <NA>         <NA>         NA not_TE_… ESR_B NA    
 8 chr1.865… MLT1B   LTR      LTR          ERVL-MaLR   170 TE_peak  NR     1    
 9 chr1.869… MIRb    SINE     SINE         MIR          72 TE_peak  NR     0.679
10 chr1.876… <NA>    <NA>     <NA>         <NA>         NA not_TE_… EAR_… NA    
# ℹ 95,231 more rows
…
  dplyr::select(seqnames:gwas,repName:repFamily) %>% 
  mutate(mrc=if_else(peakid %in% EAR_hyper$id, "EAR_hyper",
                      if_else(peakid %in% EAR_hypo$id, "EAR_hypo",
                              if_else(peakid %in% ESR_A$id,"ESR_A",
                                      if_else(peakid %in% ESR_B$id,"ESR_B",
                                              if_else(peakid %in% ESR_C$id,"ESR_C",
                                                      if_else(peakid %in% ESR_D$id,"ESR_D",
                                                              if_else(peakid %in% LR_hyper$id,"LR_hyper",
                                                                      if_else(peakid %in% LR_hypo$id,"LR_hypo",
                                     if_else(peakid %in% NR_df$id,"NR","not_mrc")))))))))) %>% 
  # distinct(peakid, .keep_all = TRUE) %>% 
  group_by(gwas,mrc) %>% 
  tally

# A tibble: 24 × 3
# Groups:   gwas [6]
   gwas   mrc           n
   <chr>  <chr>     <int>
 1 ACresp LR_hyper      2
 2 ARR    ESR_B         2
 3 ARR    LR_hyper      1
 4 ARR    LR_hypo       4
 5 ARR    NR           12
 6 ARR    not_mrc       1
 7 CAD    EAR_hyper     1
 8 CAD    EAR_hypo      1
 9 CAD    ESR_B         4
10 CAD    LR_hyper      7
# ℹ 14 more rows
…
